module desktop

go 1.17

require (
	github.com/fsnotify/fsnotify v1.5.4 // indirect
	github.com/gomodule/redigo v1.8.9 // indirect
	github.com/gorilla/mux v1.8.0 // indirect
	github.com/gorilla/securecookie v1.1.1 // indirect
	github.com/gorilla/sessions v1.2.1 // indirect
	github.com/gorilla/websocket v1.5.0 // indirect
	github.com/hashicorp/hcl v1.0.0 // indirect
	github.com/inconshreveable/mousetrap v1.0.0 // indirect
	github.com/jackc/chunkreader/v2 v2.0.1 // indirect
	github.com/jackc/pgconn v1.13.0 // indirect
	github.com/jackc/pgio v1.0.0 // indirect
	github.com/jackc/pgpassfile v1.0.0 // indirect
	github.com/jackc/pgproto3/v2 v2.3.1 // indirect
	github.com/jackc/pgservicefile v0.0.0-20200714003250-2b9c44734f2b // indirect
	github.com/jackc/pgtype v1.12.0 // indirect
	github.com/jackc/pgx/v4 v4.17.2 // indirect
	github.com/jackc/puddle v1.3.0 // indirect
	github.com/jmoiron/sqlx v1.3.5 // indirect
	github.com/magiconair/properties v1.8.6 // indirect
	github.com/mitchellh/mapstructure v1.5.0 // indirect
	github.com/pelletier/go-toml v1.9.5 // indirect
	github.com/pelletier/go-toml/v2 v2.0.5 // indirect
	github.com/spf13/afero v1.8.2 // indirect
	github.com/spf13/cast v1.5.0 // indirect
	github.com/spf13/cobra v1.5.0 // indirect
	github.com/spf13/jwalterweatherman v1.1.0 // indirect
	github.com/spf13/pflag v1.0.5 // indirect
	github.com/spf13/viper v1.13.0 // indirect
	github.com/subosito/gotenv v1.4.1 // indirect
	go.uber.org/atomic v1.7.0 // indirect
	go.uber.org/multierr v1.6.0 // indirect
	go.uber.org/zap v1.23.0 // indirect
	golang.org/x/crypto v0.0.0-20221012134737-56aed061732a // indirect
	golang.org/x/net v0.0.0-20220520000938-2e3eb7b945c2 // indirect
	golang.org/x/sys v0.0.0-20220520151302-bc2c85ada10a // indirect
	golang.org/x/text v0.3.7 // indirect
	gopkg.in/ini.v1 v1.67.0 // indirect
	gopkg.in/yaml.v2 v2.4.0 // indirect
	gopkg.in/yaml.v3 v3.0.1 // indirect
)
